^C:\USERS\ODARRIBA\DOCUMENTS\VISUAL STUDIO 2015\PROJECTS\REPASO_28_10_15\REPASO2\MAIN_2.CPP
C:\USERS\ODARRIBA\DOCUMENTS\VISUAL STUDIO 2015\PROJECTS\REPASO_28_10_15\REPASO2\DEBUG\VC140.PDB
C:\USERS\ODARRIBA\DOCUMENTS\VISUAL STUDIO 2015\PROJECTS\REPASO_28_10_15\REPASO2\DEBUG\VC140.IDB
C:\USERS\ODARRIBA\DOCUMENTS\VISUAL STUDIO 2015\PROJECTS\REPASO_28_10_15\REPASO2\DEBUG\MAIN_2.OBJ
