^C:\USERS\ODARRIBA\DOCUMENTS\VISUAL STUDIO 2015\PROJECTS\REPASO_28_10_15\REPASO2\DEBUG\MAIN_2.OBJ
C:\USERS\ODARRIBA\DOCUMENTS\VISUAL STUDIO 2015\PROJECTS\REPASO_28_10_15\DEBUG\REPASO2.ILK
C:\USERS\ODARRIBA\DOCUMENTS\VISUAL STUDIO 2015\PROJECTS\REPASO_28_10_15\DEBUG\REPASO2.EXE
C:\USERS\ODARRIBA\DOCUMENTS\VISUAL STUDIO 2015\PROJECTS\REPASO_28_10_15\DEBUG\REPASO2.PDB
